MAR 536 - Spring 2023 - Biological Stats II : Lab 1
…
Extracting information from data frames (2)

The ‘tidyverse’ is a popular set of R packages for interacting with data and performing statistical analyses.

Data frames are commonly used in a structure called a ‘tibble’

> #install.packages('tidyverse')
> library(tidyverse)

> hills_tbl <- as_tibble(hills)
> hills_tbl
# A tibble: 35 × 3
    dist climb  time
   <dbl> <int> <dbl>
 1   2.5   650  16.1
 2   6    2500  48.4
 3   6     900  33.6
 4   7.5   800  45.6
 5   8    3070  62.3
 6   8    2866  73.2
 7  16    7500 205. 
 8   6     800  36.4
 9   5     800  29.8
10   6     650  39.8
# … with 25 more rows
…
Create a new variable of the race names

>   hills_tbl <- mutate(hills_tbl,race=rownames(hills))
>   hills_tbl <- dplyr::select(hills_tbl,race,everything())
>   hills_tbl
# A tibble: 35 × 4
   race          dist climb  time
   <chr>        <dbl> <int> <dbl>
 1 Greenmantle    2.5   650  16.1
 2 Carnethy       6    2500  48.4
 3 Craig Dunain   6     900  33.6
 4 Ben Rha        7.5   800  45.6
 5 Ben Lomond     8    3070  62.3
 6 Goatfell       8    2866  73.2
 7 Bens of Jura  16    7500 205. 
 8 Cairnpapple    6     800  36.4
 9 Scolty         5     800  29.8
10 Traprain       6     650  39.8
# … with 25 more rows
…
