MAR 536 - Spring 2025 – MAR 536: Lab 4
…
Number of Fisher Scoring iterations: 5

broom::augment()

As with lm(), the augment() function can be used to obtain the predictions from a fitted model object, and for a new data frame.

> newobject <- augment(oldobject, newdata, 
+                      type.predict = c("link","response","terms"),
+                      se_fit = TRUE)

Note: default for type.predict is on the scale of the linear predictors. Set to "response" to obtain predictions on the scale of the response variable.

augment(RIKZ_poisson, se_fit = TRUE)

# A tibble: 45 × 9
   Richness    NAP .fitted .se.fit .resid   .hat .sigma .cooksd .std.resid
      <dbl>  <dbl>   <dbl>   <dbl>  <dbl>  <dbl>  <dbl>   <dbl>      <dbl>
 1       11  0.045    1.77  0.0639  1.90  0.0239   1.61 0.0569       1.92 
 2       10 -1.04     2.37  0.0896 -0.206 0.0856   1.64 0.00213     -0.215
 3       13 -1.34     2.53  0.106   0.112 0.142    1.64 0.00122      0.121
 4       11  0.616    1.45  0.0827  2.72  0.0291   1.59 0.165        2.76 
 5       10 -0.684    2.17  0.0737  0.406 0.0476   1.64 0.00453      0.416
 6        8  1.19     1.13  0.114   2.32  0.0401   1.60 0.170        2.37 
 7        9  0.82     1.34  0.0929  2.26  0.0328   1.60 0.125        2.30 
 8        8  0.635    1.44  0.0836  1.64  0.0294   1.62 0.0532       1.66 
 9       19  0.061    1.76  0.0641  4.33  0.0238   1.50 0.376        4.38 
10       17 -1.33     2.53  0.106   1.18  0.141    1.63 0.148        1.27 
# ℹ 35 more rows

Observed and fitted values for Poisson RIKZ

#create new values for beach height
new_data <- tibble(NAP = seq(-1.5,2.5,length.out=100))
#predict values for response based on new salinity
RIKZ_pois_pred <- augment(RIKZ_poisson,
                    newdata = new_data, 
                    type.predict = "response",
                    se_fit = "TRUE")
RIKZ_pois_pred
# A tibble: 100 × 3
     NAP .fitted .se.fit
   <dbl>   <dbl>   <dbl>
 1 -1.5     13.8    1.60
 2 -1.46    13.5    1.53
 3 -1.42    13.2    1.46
 4 -1.38    12.9    1.40
 5 -1.34    12.6    1.34
 6 -1.30    12.3    1.28
 7 -1.26    12.1    1.23
 8 -1.22    11.8    1.17
 9 -1.18    11.5    1.12
10 -1.14    11.3    1.07
# ℹ 90 more rows
…
“medium” if body mass is greater than 3000 g, and less than or equal to 4500 g

“small” if body mass is less than or equal to 3000 g

penguins |>
  mutate(size_bin = case_when(
      body_mass_g > 4500 ~ "large",
      body_mass_g > 3000 & body_mass_g <= 4500 ~ "medium",
      body_mass_g <= 3000 ~ "small"
    )
  ) |>
  select(species, island, size_bin, everything())

# A tibble: 344 × 9
   species island    size_bin bill_length_mm bill_depth_mm flipper_length_mm
   <fct>   <fct>     <chr>             <dbl>         <dbl>             <int>
 1 Adelie  Torgersen medium             39.1          18.7               181
 2 Adelie  Torgersen medium             39.5          17.4               186
 3 Adelie  Torgersen medium             40.3          18                 195
 4 Adelie  Torgersen <NA>               NA            NA                  NA
 5 Adelie  Torgersen medium             36.7          19.3               193
 6 Adelie  Torgersen medium             39.3          20.6               190
 7 Adelie  Torgersen medium             38.9          17.8               181
 8 Adelie  Torgersen large              39.2          19.6               195
 9 Adelie  Torgersen medium             34.1          18.1               193
10 Adelie  Torgersen medium             42            20.2               190
# ℹ 334 more rows
# ℹ 3 more variables: body_mass_g <int>, sex <fct>, year <int>
…
2 if flipper_length_mm is >= 200 mm

0 if flipper_length_mm is anything else (e.g. NA)

penguins |>
  select(species, year, flipper_length_mm) |>
  rename(study_year = year) |>
  filter(species == "Adelie") |>
  mutate(flipper_rank = case_when(
    flipper_length_mm < 200 ~ 1,
    flipper_length_mm >= 200 ~ 2,
    TRUE ~ 0 # 0 for anything else
  ))

# A tibble: 152 × 4
   species study_year flipper_length_mm flipper_rank
   <fct>        <int>             <int>        <dbl>
 1 Adelie        2007               181            1
 2 Adelie        2007               186            1
 3 Adelie        2007               195            1
 4 Adelie        2007                NA            0
 5 Adelie        2007               193            1
 6 Adelie        2007               190            1
 7 Adelie        2007               181            1
 8 Adelie        2007               195            1
 9 Adelie        2007               193            1
10 Adelie        2007               190            1
# ℹ 142 more rows
…
