MAR 536 - Spring 2023 - MAR 536 Lab 6
…
ssl_models <- ssl_long |>
  group_by(sitename) |> 
  nest() |> 
  mutate(model = map(data, ~lm(log_count ~ year2, data = .))) |> 
  mutate(results = map(model, tidy))
ssl_models
## # A tibble: 53 × 4
## # Groups:   sitename [53]
##    sitename             data              model  results         
##    <chr>                <list>            <list> <list>          
##  1 ADAK/LAKE POINT      <tibble [7 × 4]>  <lm>   <tibble [2 × 5]>
##  2 ADUGAK               <tibble [8 × 4]>  <lm>   <tibble [2 × 5]>
##  3 AGATTU/CAPE SABAK    <tibble [10 × 4]> <lm>   <tibble [2 × 5]>
##  4 AGATTU/GILLON POINT  <tibble [8 × 4]>  <lm>   <tibble [2 × 5]>
##  5 AKUN/BILLINGS HEAD   <tibble [7 × 4]>  <lm>   <tibble [2 × 5]>
##  6 AKUTAN/CAPE MORGAN   <tibble [8 × 4]>  <lm>   <tibble [2 × 5]>
##  7 AMCHITKA/COLUMN ROCK <tibble [5 × 4]>  <lm>   <tibble [2 × 5]>
##  8 ATKINS               <tibble [9 × 4]>  <lm>   <tibble [2 × 5]>
##  9 ATTU/CAPE WRANGELL   <tibble [8 × 4]>  <lm>   <tibble [2 × 5]>
## 10 AYUGADAK             <tibble [7 × 4]>  <lm>   <tibble [2 × 5]>
## # … with 43 more rows

ssl_slopes <- ssl_models |> 
  select(sitename, results) |>
  unnest() |>
  filter(term == "year2")
ssl_slopes
## # A tibble: 53 × 6
## # Groups:   sitename [53]
##    sitename             term  estimate std.error statistic    p.value
##    <chr>                <chr>    <dbl>     <dbl>     <dbl>      <dbl>
##  1 ADAK/LAKE POINT      year2  -0.0232   0.00738     -3.14 0.0256    
##  2 ADUGAK               year2   0.0517   0.00633      8.17 0.000181  
##  3 AGATTU/CAPE SABAK    year2  -0.112    0.00877    -12.8  0.00000133
##  4 AGATTU/GILLON POINT  year2  -0.0733   0.0168      -4.35 0.00482   
##  5 AKUN/BILLINGS HEAD   year2   0.0851   0.0190       4.49 0.00648   
##  6 AKUTAN/CAPE MORGAN   year2   0.0399   0.00602      6.63 0.000566  
##  7 AMCHITKA/COLUMN ROCK year2  -0.107    0.0333      -3.21 0.0488    
##  8 ATKINS               year2   0.0315   0.0207       1.52 0.172     
##  9 ATTU/CAPE WRANGELL   year2  -0.0715   0.0176      -4.06 0.00667   
## 10 AYUGADAK             year2  -0.0525   0.0163      -3.22 0.0234    
## # … with 43 more rows
…
residual bootstrapping

resample residuals from the original models to obtain bootstrapped confidence intervals of the slopes.

nboot <- 100
# first extract a table of fitted values and residuals using augment
ssl_boot <- ssl_models |>
  mutate(tbl = map(model, augment)) |> 
  select(sitename, tbl)
ssl_boot
## # A tibble: 53 × 2
## # Groups:   sitename [53]
##    sitename             tbl              
##    <chr>                <list>           
##  1 ADAK/LAKE POINT      <tibble [7 × 8]> 
##  2 ADUGAK               <tibble [8 × 8]> 
##  3 AGATTU/CAPE SABAK    <tibble [10 × 8]>
##  4 AGATTU/GILLON POINT  <tibble [8 × 8]> 
##  5 AKUN/BILLINGS HEAD   <tibble [7 × 8]> 
##  6 AKUTAN/CAPE MORGAN   <tibble [8 × 8]> 
##  7 AMCHITKA/COLUMN ROCK <tibble [5 × 8]> 
##  8 ATKINS               <tibble [9 × 8]> 
##  9 ATTU/CAPE WRANGELL   <tibble [8 × 8]> 
## 10 AYUGADAK             <tibble [7 × 8]> 
## # … with 43 more rows

residual bootstrapping

nboot <- 100
# first extract a table of fitted values and residuals using augment
ssl_boot <- ssl_models |>
  mutate(tbl = map(model, augment)) |> 
  select(sitename, tbl)|> 
  unnest(cols=c(tbl)) |> 
  janitor::clean_names() |> 
  ungroup() |>
  I()
ssl_boot
## # A tibble: 372 × 9
##    sitename       log_count year2 fitted    resid   hat  sigma  cooksd std_resid
##    <chr>              <dbl> <dbl>  <dbl>    <dbl> <dbl>  <dbl>   <dbl>     <dbl>
##  1 ADAK/LAKE POI…      5.89     2   5.90 -0.00375 0.452 0.0868 0.00176   -0.0653
##  2 ADAK/LAKE POI…      5.86     4   5.85  0.00614 0.277 0.0868 0.00166    0.0929
##  3 ADAK/LAKE POI…      5.74     5   5.83 -0.0888  0.216 0.0709 0.231     -1.29  
##  4 ADAK/LAKE POI…      5.82     9   5.74  0.0886  0.155 0.0722 0.141      1.24  
##  5 ADAK/LAKE POI…      5.76    10   5.71  0.0509  0.184 0.0821 0.0595     0.726 
##  6 ADAK/LAKE POI…      5.73    11   5.69  0.0454  0.232 0.0829 0.0673     0.667 
##  7 ADAK/LAKE POI…      5.52    14   5.62 -0.0985  0.483 0.0533 1.46      -1.76  
##  8 ADUGAK              5.03     0   4.99  0.0416  0.412 0.0857 0.155      0.666 
##  9 ADUGAK              5.08     2   5.09 -0.0172  0.269 0.0886 0.0112    -0.247 
## 10 ADUGAK              5.12     4   5.20 -0.0778  0.175 0.0804 0.118     -1.05  
## # … with 362 more rows

residual bootstrapping

# we'll do resampling from the residuals for each year within each rookery
# rather than getting complicated with nested lists, we'll use sample_frac() to do the resamples
tosample <- ssl_boot |> 
  select(sitename, resid) |> 
  group_by(sitename)
resamples <-
   map_dfr(seq_len(nboot), ~slice_sample(tosample, prop = 1, replace = TRUE)) |>
   ungroup() |> 
   mutate(replicate = rep(1:nboot, each = nrow(tosample)))
resamples
## # A tibble: 37,200 × 3
##    sitename           resid replicate
##    <chr>              <dbl>     <int>
##  1 ADAK/LAKE POINT  0.0454          1
##  2 ADAK/LAKE POINT  0.0454          1
##  3 ADAK/LAKE POINT  0.0886          1
##  4 ADAK/LAKE POINT  0.0886          1
##  5 ADAK/LAKE POINT -0.00375         1
##  6 ADAK/LAKE POINT  0.00614         1
##  7 ADAK/LAKE POINT  0.0509          1
##  8 ADUGAK           0.0416          1
##  9 ADUGAK          -0.0172          1
## 10 ADUGAK           0.0416          1
## # … with 37,190 more rows

resamples contains our bootstraps. Let’s append them to the data frame so we can compute the new data and re-fit the models for each case.

ssl_bootmod <- map_dfr(seq_len(nboot), ~I(ssl_boot)) |>
  select(-resid, -sitename) |> 
  bind_cols(resamples) |> 
  mutate(log_count = fitted + resid) |> 
  group_by(sitename, replicate) |> 
  nest() # now have a data frame with a row for each site & replicate
ssl_bootmod
## # A tibble: 5,300 × 3
## # Groups:   sitename, replicate [5,300]
##    sitename             replicate data             
##    <chr>                    <int> <list>           
##  1 ADAK/LAKE POINT              1 <tibble [7 × 8]> 
##  2 ADUGAK                       1 <tibble [8 × 8]> 
##  3 AGATTU/CAPE SABAK            1 <tibble [10 × 8]>
##  4 AGATTU/GILLON POINT          1 <tibble [8 × 8]> 
##  5 AKUN/BILLINGS HEAD           1 <tibble [7 × 8]> 
##  6 AKUTAN/CAPE MORGAN           1 <tibble [8 × 8]> 
##  7 AMCHITKA/COLUMN ROCK         1 <tibble [5 × 8]> 
##  8 ATKINS                       1 <tibble [9 × 8]> 
##  9 ATTU/CAPE WRANGELL           1 <tibble [8 × 8]> 
## 10 AYUGADAK                     1 <tibble [7 × 8]> 
## # … with 5,290 more rows

ssl_bootmod <- ssl_bootmod |>
  mutate(model = map(data, ~lm(log_count ~ year2, data = .))) |>  #same code as before to run the models
  mutate(coef = map(model, coef)) |> 
  mutate(slope = map_dbl(coef, pluck, 2)) |> 
    ungroup()
ssl_bootmod
## # A tibble: 5,300 × 6
##    sitename             replicate data              model  coef        slope
##    <chr>                    <int> <list>            <list> <list>      <dbl>
##  1 ADAK/LAKE POINT              1 <tibble [7 × 8]>  <lm>   <dbl [2]> -0.0256
##  2 ADUGAK                       1 <tibble [8 × 8]>  <lm>   <dbl [2]>  0.0470
##  3 AGATTU/CAPE SABAK            1 <tibble [10 × 8]> <lm>   <dbl [2]> -0.120 
##  4 AGATTU/GILLON POINT          1 <tibble [8 × 8]>  <lm>   <dbl [2]> -0.0833
##  5 AKUN/BILLINGS HEAD           1 <tibble [7 × 8]>  <lm>   <dbl [2]>  0.110 
##  6 AKUTAN/CAPE MORGAN           1 <tibble [8 × 8]>  <lm>   <dbl [2]>  0.0365
##  7 AMCHITKA/COLUMN ROCK         1 <tibble [5 × 8]>  <lm>   <dbl [2]> -0.114 
##  8 ATKINS                       1 <tibble [9 × 8]>  <lm>   <dbl [2]>  0.0339
##  9 ATTU/CAPE WRANGELL           1 <tibble [8 × 8]>  <lm>   <dbl [2]> -0.0923
## 10 AYUGADAK                     1 <tibble [7 × 8]>  <lm>   <dbl [2]> -0.0618
## # … with 5,290 more rows

ssl_bootslopes <- ssl_bootmod |>
  group_by(sitename) |> #pull out summaries of the distribution for the slope estimates for plotting
  summarize(med = median(slope),
            lower = quantile(slope, 0.025),
            upper = quantile(slope, 0.975)) |> 
  I()
ssl_bootslopes
## # A tibble: 53 × 4
##    sitename                 med    lower   upper
##    <chr>                  <dbl>    <dbl>   <dbl>
##  1 ADAK/LAKE POINT      -0.0220 -0.0345  -0.0122
##  2 ADUGAK                0.0513  0.0398   0.0613
##  3 AGATTU/CAPE SABAK    -0.113  -0.126   -0.101 
##  4 AGATTU/GILLON POINT  -0.0743 -0.0983  -0.0466
##  5 AKUN/BILLINGS HEAD    0.0860  0.0602   0.111 
##  6 AKUTAN/CAPE MORGAN    0.0400  0.0299   0.0488
##  7 AMCHITKA/COLUMN ROCK -0.111  -0.151   -0.0510
##  8 ATKINS                0.0295 -0.00745  0.0602
##  9 ATTU/CAPE WRANGELL   -0.0729 -0.0924  -0.0397
## 10 AYUGADAK             -0.0512 -0.0711  -0.0198
## # … with 43 more rows
…
# population model
pop_update <- function(N, growth_rate = 1) N*growth_rate

# population projection for each time series of process errors
pop_proj <- tibble(sim = seq_len(nsim)) |>
  mutate(popsize = map(growth_rates,~accumulate(., pop_update, 
                                                .init = initN))) |>
  unnest(cols = c(popsize)) |>
  mutate(year = rep(2022:2122, nsim))
pop_proj
## # A tibble: 10,100 × 3
##      sim popsize  year
##    <int>   <dbl> <int>
##  1     1    340   2022
##  2     1    316.  2023
##  3     1    308.  2024
##  4     1    359.  2025
##  5     1    360.  2026
##  6     1    369.  2027
##  7     1    354.  2028
##  8     1    429.  2029
##  9     1    444.  2030
## 10     1    456.  2031
## # … with 10,090 more rows
…
below_thresh <- pop_proj |>
  group_by(year) |>
  summarize(prob_100 = mean(popsize<100))
yr_crash <- filter(below_thresh, prob_100 > 0.5) |> slice(1)
yr_crash
## # A tibble: 1 × 2
##    year prob_100
##   <int>    <dbl>
## 1  2059     0.54
below_thresh
## # A tibble: 101 × 2
##     year prob_100
##    <int>    <dbl>
##  1  2022        0
##  2  2023        0
##  3  2024        0
##  4  2025        0
##  5  2026        0
##  6  2027        0
##  7  2028        0
##  8  2029        0
##  9  2030        0
## 10  2031        0
## # … with 91 more rows
…
