MAR 536 - Spring 2025 – MAR 536: Lab 2
…
> mean(weights)
[1] NA
> mean(weights,na.rm=TRUE)
[1] 37.4

Omit missing values.

> na.omit(weights)
[1] 25 34 75 21 32
attr(,"na.action")
[1] 4 7
attr(,"class")
[1] "omit"
> drop_na(penguins)
# A tibble: 333 × 8
   species island    bill_length_mm bill_depth_mm flipper_length_mm body_mass_g
   <fct>   <fct>              <dbl>         <dbl>             <int>       <int>
 1 Adelie  Torgersen           39.1          18.7               181        3750
 2 Adelie  Torgersen           39.5          17.4               186        3800
 3 Adelie  Torgersen           40.3          18                 195        3250
 4 Adelie  Torgersen           36.7          19.3               193        3450
 5 Adelie  Torgersen           39.3          20.6               190        3650
 6 Adelie  Torgersen           38.9          17.8               181        3625
 7 Adelie  Torgersen           39.2          19.6               195        4675
 8 Adelie  Torgersen           41.1          17.6               182        3200
 9 Adelie  Torgersen           38.6          21.2               191        3800
10 Adelie  Torgersen           34.6          21.1               198        4400
# ℹ 323 more rows
# ℹ 2 more variables: sex <fct>, year <int>
…
Save Laengelmavesi2.xlsx to your computer.

Either to your project directory or create a directory called ‘data’.

> library(readxl)
> fish_data <- read_excel(
+              path = "../data/Laengelmavesi2.xlsx",
+                    sheet = "data", na = "NA")
> # fish_data <- read_csv(file="../data/Laengelmavesi2.csv",
> #                   header=TRUE,sep=",")
> # R will look for the file in the working directory.
> # Provide the directory path to the file if it is elsewhere

> fish_data
# A tibble: 158 × 4
   species length weight height
   <chr>    <dbl>  <dbl>  <dbl>
 1 Bream     25.4    242   38.4
 2 Bream     26.3    290   40  
 3 Bream     26.5    340   39.8
 4 Bream     29      363   38  
 5 Bream     29.7    450   39.2
 6 Bream     29.7    500   41.1
 7 Bream     30      390   36.2
 8 Bream     30      450   39.9
 9 Bream     30.7    500   39.3
10 Bream     31      475   39.4
# ℹ 148 more rows
…
